<svg xmlns:svg="http://www.w3.org/2000/svg" xmlns="http://www.w3.org/2000/svg" version="1.0" width="469" height="337" style=""><rect id="backgroundrect" width="100%" height="100%" x="0" y="0" fill="none" stroke="none"/>
  <defs id="defs4">
    <clipPath id="clipPath2438">
      <path d="M 0,0 L 595.276,0 L 595.276,841.89 L 0,841.89 L 0,0 z" id="path2440"/>
    </clipPath>
    <clipPath id="clipPath2532">
      <path d="M 181.932,351.584 L 413.344,351.584 L 413.344,490.306 L 181.932,490.306 L 181.932,351.584 z" id="path2534"/>
    </clipPath>
    <clipPath id="clipPath2524">
      <path d="M 0,0 L 595.276,0 L 595.276,841.89 L 0,841.89 L 0,0 z" id="path2526"/>
    </clipPath>
  </defs>
  
<g class="currentLayer" style=""><title>Layer 1</title>
    
      <path d="M249.34642404283295,103.05836938516632 C249.34642404283295,96.76932395366657 247.4830221500115,90.5058958151667 244.17839135301165,84.95975188066677 L183.95213551001143,84.95975188066677 C180.62188742001217,90.5058958151667 179.13608442601253,96.76932395366657 179.13608442601253,103.05836938516632 C179.13608442601253,122.27133913516627 194.6601639840119,138.1412521486668 214.24458448251244,138.1412521486668 C233.45755423251194,138.1412521486668 249.34642404283295,122.27133913516627 249.34642404283295,103.05836938516632 " id="path2542" style="fill:#ff0000;fill-opacity:1;fill-rule:nonzero;stroke:none" stroke-width="0" class=""/>
      <path d="M214.244072136652,166.2306139231664 L169.18991424583146,121.16979553616693 C145.8971344126512,98.25512694766621 115.60468544015202,84.95975188066677 83.09634062315217,84.95975188066677 L72.40112079565097,84.95975188066677 C32.49552645197218,84.95975188066677 -0.000009718527508084662,117.46809669766617 -0.000009718527508084662,157.7384812936666 C-0.000009718527508084662,173.60839430716624 4.77812777183226,185.8150344216665 12.55912434765196,199.09760084216623 C9.606475156472698,177.6943525406664 26.584592265152423,157.7384812936666 47.63585896083168,157.7384812936666 L82.37290826883145,157.7384812936666 C95.29017209115227,157.7384812936666 107.84930615733174,162.9003658331667 116.71903768565153,171.76394921116662 L281.47665761515236,336.52156914066654 C309.5598712393312,308.0863739106667 309.5598712393312,261.91120327816634 281.47665761515236,233.4567950784167 L214.244072136652,166.2306139231664 " id="path2546" style="fill:#ff0000;fill-opacity:1;fill-rule:nonzero;stroke:none" stroke-width="0" class=""/>
      <path d="M366.07161959733185,45.445077428166314 L359.7953828123318,39.52748274516625 C334.6776270258324,14.39691831216669 301.05492996333214,-3.53833911503898e-7 265.5939359551521,-3.53833911503898e-7 L214.244072136652,-3.53833911503898e-7 L169.18991424583146,0.3714503946662262 C127.06227590733215,0.3714503946662262 91.23649164683229,31.022541469166754 85.31223646765284,72.77872905916638 L265.5939359551521,72.77872905916638 C281.47665761515236,72.77872905916638 296.6292864246516,79.05496584416642 308.0868768918317,90.5058958151667 L367.5384657945124,149.98925016116664 C392.6685178816524,175.1070059476665 439.2217997588323,178.4244453911665 469.14279798283223,148.50344716716654 L366.07161959733185,45.445077428166314 " id="path2550" style="fill:#ff0000;fill-opacity:1;fill-rule:nonzero;stroke:none" stroke-width="0" class=""/>
    
  </g></svg>